% time     seconds  usecs/call     calls    errors syscall
------ ----------- ----------- --------- --------- ----------------
 44.85    0.003267          27       120           mmap
 12.46    0.000908          22        41           mprotect
 11.59    0.000844          27        31         1 openat
  8.39    0.000611         611         1           execve
  7.49    0.000546          19        28           read
  7.18    0.000523          17        30           fstat
  7.10    0.000517          17        30           close
  0.40    0.000029          29         1         1 access
  0.27    0.000020           6         3           brk
  0.27    0.000020          20         1           arch_prctl
  0.00    0.000000           0         1           write
  0.00    0.000000           0         1           munmap
  0.00    0.000000           0         2           rt_sigaction
  0.00    0.000000           0         1           rt_sigprocmask
  0.00    0.000000           0         1           sysinfo
  0.00    0.000000           0         2           getuid
  0.00    0.000000           0         1           geteuid
  0.00    0.000000           0         1           set_tid_address
  0.00    0.000000           0         1           set_robust_list
  0.00    0.000000           0         1           prlimit64
------ ----------- ----------- --------- --------- ----------------
100.00    0.007285          24       298         2 total
